CS109B Lab 6: Latent Dirichilet Analysis (LDA)
…
album_names<-names(kanye.album)
by_song<-c()
for(ii in 1:length(kanye.album)){
  album<-rowid_to_column(tibble(text=kanye.album[[ii]]$lyric,
                                title=album_names[ii]),var='song')
  by_song<-rbind(by_song,album)
}

by_song<-by_song %>% 
  unite(document,c('title','song'),sep="_",remove=T)

by_song

## # A tibble: 141 x 2
##    document             text                                              
##    <chr>                <chr>                                             
##  1 808s & Heartbreak_1  ". . . . Why would she make calls out the blue. .
##  2 808s & Heartbreak_2  ". . . . . My friend showed me pictures of his ki
##  3 808s & Heartbreak_3  ". . . . In the night, I hear them talk the colde
##  4 808s & Heartbreak_4  ". . . . It's amazing, I'm the reason. . Everybod
##  5 808s & Heartbreak_5  ". . . . . . I'm not loving you, the way I wanted
##  6 808s & Heartbreak_6  ". . . . . . Why are you so paranoid. . Don't be 
##  7 808s & Heartbreak_7  ". . . . . . Bout the baddest girl I ever seen . 
##  8 808s & Heartbreak_8  ". . . . Let me know. . Do I still got time to gr
##  9 808s & Heartbreak_9  ". . . . . . Didn't you know . . I was waiting on
## 10 808s & Heartbreak_10 ". . . . . . I'm cold! (Yeah). . I'm cold! (Yeah)
## # ... with 131 more rows
…
